<svg xmlns="http://www.w3.org/2000/svg" width="67.77" height="60.885" viewBox="0 0 67.77 60.885">
  <g id="стоимость" transform="translate(0.005)">
    <path id="Path_17" data-name="Path 17" d="M282.7,392.64h56v33.18h-56V392.64Zm10.3,5.79h35.49a3.73,3.73,0,0,0,4.23,4.11v13.1a3.74,3.74,0,0,0-4.2,4.29H292.94a3.74,3.74,0,0,0-4.2-4.29v-13.1a3.73,3.73,0,0,0,4.23-4.11h0Z" transform="translate(-272 -366)" fill="none" stroke="#272727" stroke-linecap="round" stroke-linejoin="round" stroke-width="2.13"/>
    <path id="Path_18" data-name="Path 18" stroke="#272727" d="M310.71,402.71a6.47,6.47,0,1,1-6.47,6.47,6.47,6.47,0,0,1,6.47-6.47Z" fill="#e84941" transform="translate(-272 -366)" stroke-linecap="round" stroke-linejoin="round" stroke-width="2.13" fill-rule="evenodd"/>
    <path id="Path_19" data-name="Path 19" d="M299.7,409.82h-2.22m26.44,0H321.7" transform="translate(-272 -366)" fill="none" stroke="#272727" stroke-linecap="round" stroke-linejoin="round" stroke-width="2.13"/>
    <path id="Path_20" data-name="Path 20" d="M278.42,366h37.63a6.43,6.43,0,0,1,6.42,6.42v16.39h-2.13V372.42a4.31,4.31,0,0,0-4.29-4.29H278.42a4.31,4.31,0,0,0-4.29,4.29v22.19a4.31,4.31,0,0,0,4.29,4.29h.78V401h-.78a6.43,6.43,0,0,1-6.42-6.42V372.42a6.43,6.43,0,0,1,6.42-6.42Z" transform="translate(-272 -366)" fill="#272727"/>
    <path id="Path_21" data-name="Path 21" d="M1.06,8.12H49.4v7.53H1.06V8.12Z" fill="#e84941" stroke="#272727" stroke-linecap="round" stroke-linejoin="round" stroke-width="2.13" fill-rule="evenodd"/>
    <line id="Line_1" data-name="Line 1" x2="8.38" transform="translate(5.49 21.08)" fill="none" stroke="#272727" stroke-linecap="round" stroke-linejoin="round" stroke-width="2.13"/>
  </g>
</svg>
