<svg xmlns="http://www.w3.org/2000/svg" width="42" height="42" viewBox="0 0 42 42">
  <g id="иконка" transform="translate(-1155 -6095)">
    <g id="Ellipse_16" data-name="Ellipse 16" transform="translate(1155 6095)" fill="none" stroke="#e84941" stroke-width="1">
      <circle cx="21" cy="21" r="21" stroke="none"/>
      <circle cx="21" cy="21" r="20.5" fill="none"/>
    </g>
    <g id="call-answer" transform="translate(1170 6109.606)">
      <g id="Group_23" data-name="Group 23" transform="translate(0 0.394)">
        <g id="Group_22" data-name="Group 22" transform="translate(0)">
          <path id="Path_6" data-name="Path 6" d="M12.737,10.676,10.725,8.664a1.049,1.049,0,0,0-1.479.028L8.232,9.7l-.2-.111A10.088,10.088,0,0,1,5.593,7.83,10.144,10.144,0,0,1,3.826,5.387c-.038-.068-.074-.133-.109-.2l.68-.679.334-.335A1.048,1.048,0,0,0,4.759,2.7L2.747.686A1.048,1.048,0,0,0,1.268.713L.7,1.284.716,1.3a3.279,3.279,0,0,0-.467.824,3.417,3.417,0,0,0-.208.836c-.266,2.2.741,4.216,3.473,6.948,3.776,3.776,6.819,3.491,6.95,3.477a3.4,3.4,0,0,0,.838-.211,3.268,3.268,0,0,0,.821-.465l.012.011.575-.563A1.05,1.05,0,0,0,12.737,10.676Z" transform="translate(0 -0.394)" fill="#e84941"/>
        </g>
      </g>
    </g>
  </g>
</svg>
